Feature,Feature Importance
age,0.09600143574861927
duration,0.4483914110769175
campaign,0.015078551470202905
previous,0.022249683370028844
job_blue-collar,0.0024624303835078186
job_entrepreneur,0.0004514700222589265
job_housemaid,0.000482814787802299
job_management,0.002216079243026247
job_retired,0.007110649522904602
job_self-employed,0.0001390984642206919
job_services,0.0006049476855037752
job_student,0.002974629704106106
job_technician,0.005202521046052378
job_unemployed,0.002915835856362394
job_unknown,8.256273362884807e-05
marital_married,0.007246791241541829
marital_single,0.0014159870188271305
education_secondary,0.0013718056978048972
education_tertiary,0.0034142656842090276
education_unknown,0.0025866443490259114
default_yes,0.007451711351975329
housing_yes,0.006702815611797949
loan_yes,0.01418988314529794
contact_telephone,0.004356382871386716
contact_unknown,0.045046176758353686
month_aug,0.0036713111163617284
month_dec,0.0010833428511914042
month_feb,0.00822256902098592
month_jan,0.00041323657528365317
month_jul,0.005751294746022322
month_jun,0.022957074752904864
month_mar,0.020322398383873872
month_may,0.018235578160936593
month_nov,0.008920856980664362
month_oct,0.03399445058379436
month_sep,0.004335247197125156
poutcome_other,0.0016690513173981015
poutcome_success,0.1700954827123506
poutcome_unknown,0.00018152075574386965
y,
