Topic # 01,Topic # 02,Topic # 03,Topic # 04,Topic # 05,Topic # 06,Topic # 07,Topic # 08,Topic # 09,Topic # 10
the,to,you,and,my,day,for,in,we,on
of,have,it,when,had,that,people,all,her,now
school,people,will,fan,to,its,it,love,bihday,finally
for,and,bull,is,your,ill,was,with,love,see
is,work,gun,they,is,fathers,can,take,for,channel
exams,forever,do,his,amp,happy,who,time,petunia,what
year,are,your,talking,name,rayos,fat,ur,got,nights
cant,night,direct,there,poland,dont,knowing,the,nose,fuss
about,good,want,be,whom,one,away,gun,job,pm
up,families,dominate,before,wife,think,there,smiles,are,monday
time,went,taylorswift,just,because,soon,from,so,selfish,get
girl,means,whatever,huge,miss,but,kick,helpcovedolphins,you,at
actorslife,their,if,disputes,bridget,hug,blaming,cant,by,all
imagine,mans,up,allshowandnogo,surgery,happen,conceded,antalya,memories,about
revolutionschool,actions,and,leave,everything,anytime,free,turkey,while,up
next,nightclub,of,big,she,hope,gave,pressconference,campfire,is
hate,riporlando,helped,pay,adore,na,them,throwback,guitar,to
this,lost,wouldnt,chaos,shes,always,goal,sunday,daughter,belief
weekend,those,worse,fare,show,gon,euro,media,summeime,pieces
amp,raise,terrorism,so,her,get,hit,again,bike,piano
new,this,control,selfish,be,to,bale,no,riding,baroque
think,at,market,get,back,man,rooney,wont,enjoy,scourge
to,was,black,into,october,you,ha,black,son,beyond
point,no,wont,around,received,mr,thankful,terrorism,driveway,the
rb,mindset,stop,drags,history,world,white,helped,his,playing
turning,out,carrying,kids,acceptance,video,am,wouldnt,playing,those
clearly,excited,get,dysfunction,yes,hotvideo,positive,worse,so,stuff
sake,looks,cant,father,letter,videos,by,carrying,around,old
ferrari,never,to,happyy,masters,hump,disabling,stop,as,two
ferrarimercs,different,this,soo,goodtimes,up,goodnight,control,biggerproblems,shooting
championship,vote,take,he,again,has,cloudy,market,values,florida
gp,presidential,bihday,dysfunctional,at,every,due,ascot,standwithorlando,disneygatorattack
its,candidate,white,run,so,played,weather,if,pulseshooting,happening
product,cycle,super,being,will,fatherly,production,seashepherd,orlandoshooting,much
tool,chance,tarlac,playoffs,for,celebrate,badmonday,opkillingbay,heabreaking,kid
drink,be,wedding,easier,see,role,oxygen,comment,orlando,hump
open,for,thank,an,bihday,tool,having,thecove,the,orlando
wine,new,zpamdelacruz,nba,in,open,race,australia,essential,so
whos,few,capas,knicks,ff,drink,hey,wheelchair,chemicals,first
that,felixfoisgolf,dolores,roll,gamedev,product,call,disapointed,oils,and
