age,sex,bmi,steps,children,smoker,region,charges,insuranceclaim
40,1,26.315,8009,1,0,1,6389.37785,0
63,1,35.09,4010,0,1,2,47055.5321,1
18,1,31.68,3005,2,1,2,34303.1672,1
44,1,30.69,3004,2,0,2,7731.4271,0
42,0,26.6,4007,0,1,1,21348.706000000002,1
62,0,26.29,5004,0,1,2,27808.7251,1
30,1,35.53,3004,0,1,2,36950.2567,1
38,1,37.05,4008,1,0,0,6079.6715,0
22,0,39.805,3001,0,0,0,2755.02095,1
35,1,24.13,10006,1,0,1,5125.2157,0
64,0,31.3,3001,2,1,3,47291.055,1
64,0,39.33,3007,0,0,0,14901.5167,1
56,1,19.95,5004,0,1,0,22412.6485,1
20,1,28.025,4002,1,1,1,17560.37975,1
45,0,38.285,4009,0,0,0,7935.29115,1
41,0,32.965,4002,0,0,1,6571.02435,1
63,1,41.47,4003,0,0,2,13405.3903,1
63,1,28.31,5002,0,0,1,13770.0979,1
18,1,15.96,10007,0,0,0,1694.7964,1
54,1,33.63,3008,1,0,1,10825.2537,1
38,1,34.7,4007,2,0,3,6082.405,0
37,1,28.025,8000,2,0,1,6203.90175,0
45,1,22.895,8002,2,1,1,21098.55405,1
32,0,17.765,3001,2,1,1,32734.1863,0
29,1,29.735,8008,2,0,1,18157.876,0
60,0,36.005,3002,0,0,0,13228.84695,1
28,1,36.4,4000,1,1,3,51194.55914,1
48,1,29.7,8005,0,0,2,7789.635,1
53,0,37.43,3005,1,0,1,10959.6947,1
20,0,22.42,4005,0,1,1,14711.7438,1
20,0,37.0,3009,5,0,3,4830.63,0
38,1,19.3,4003,0,1,3,15820.698999999999,1
47,0,33.915,3000,3,0,1,10115.00885,0
23,1,17.385,10006,1,0,1,2775.19215,1
23,1,23.845,10004,0,0,0,2395.17155,0
31,0,36.63,3010,2,0,2,4949.7587,0
19,1,24.6,10000,1,0,3,1837.237,0
34,0,31.92,4003,1,1,0,37701.8768,1
18,0,38.665,3006,2,0,0,3393.35635,0
44,0,26.41,8007,0,0,1,7419.4779,1
29,0,29.59,8002,1,0,2,3947.4131,0
19,0,28.9,8003,0,0,3,1743.214,1
32,0,29.8,8010,2,0,3,5152.134,0
43,1,27.36,8010,3,0,0,8606.2174,1
18,1,23.75,10001,0,0,0,1705.6245,0
28,0,37.62,3003,1,0,2,3766.8838,0
50,0,27.83,8010,3,0,2,19749.383380000003,1
19,0,28.4,8002,1,0,3,2331.519,0
44,1,37.1,3002,2,0,3,7740.3369999999995,1
36,0,26.2,8002,0,0,3,4883.866,1
22,0,28.05,8002,0,0,2,2155.6815,1
63,0,23.085,5000,0,0,0,14451.83515,0
52,0,30.78,4008,1,0,0,10797.3362,1
46,0,28.9,8003,2,0,3,8823.279,1
34,1,25.3,4000,2,1,2,18972.495,0
54,1,39.6,3006,1,0,3,10450.552,1
19,1,30.59,3001,0,0,1,1639.5631,1
31,1,28.5,8003,5,0,0,6799.4580000000005,0
19,1,20.425,10006,0,0,1,1625.43375,0
21,0,39.49,4003,0,0,2,2026.9741,1
28,1,33.0,3009,3,0,2,4449.462,0
56,0,27.2,5001,0,0,3,11073.176000000001,1
42,0,23.37,8001,0,1,0,19964.7463,1
37,0,30.8,4006,2,0,2,6313.759,0
41,0,32.2,3010,1,0,3,6775.960999999999,1
32,0,33.155,4007,3,0,1,6128.79745,0
59,0,26.505,5005,0,0,0,12815.44495,1
19,1,34.1,3004,0,0,3,1261.442,1
60,0,25.84,5008,0,0,1,28923.136919999997,0
27,1,18.905,10004,3,0,0,4827.90495,0
44,1,27.4,8004,2,0,3,7726.854,1
46,0,33.44,3002,1,0,2,8240.5896,1
59,0,27.72,8009,3,0,2,14001.1338,1
61,1,31.57,4004,0,0,2,12557.6053,1
51,0,37.73,3006,1,0,2,9877.6077,1
44,1,31.35,3007,1,1,0,39556.4945,1
48,1,24.42,8001,0,1,2,21223.6758,1
58,1,32.01,4001,1,0,2,11946.6259,1
37,0,34.8,4003,2,1,3,39836.519,1
30,0,32.4,4000,1,0,3,4149.736,1
59,1,29.83,8008,3,1,0,30184.9367,1
49,1,30.3,3004,0,0,3,8116.68,1
22,1,25.175,8005,0,0,1,2045.68525,0
19,1,25.555,8010,0,0,1,1632.56445,0
52,1,32.205,3003,3,0,0,11488.31695,0
18,0,38.28,4001,0,0,2,1631.8212,1
26,0,29.92,8000,2,0,2,3981.9768,0
29,0,38.83,4005,3,0,2,5138.2567,0
36,1,34.43,3006,0,1,2,37742.5757,1
35,1,34.77,4005,2,0,1,5729.0053,0
45,0,28.6,8009,2,0,2,8516.829,1
61,0,39.1,4010,2,0,3,14235.072,1
48,0,41.23,3003,4,0,1,11033.6617,0
38,1,27.835,8003,2,0,1,6455.86265,0
30,1,25.46,8005,0,0,0,3645.0894,0
20,0,28.975,8002,0,0,1,2257.47525,1
29,0,32.11,4003,2,0,1,4922.9159,0
34,0,27.5,8000,1,0,3,5003.853,0
56,0,26.6,8007,1,0,1,12044.341999999999,0
46,1,30.495,3009,3,1,1,40720.55105,1
46,0,27.74,8005,0,0,1,8026.6666,1
18,0,30.115,3002,0,0,0,21344.8467,1
41,0,33.155,4008,3,0,0,8538.28845,0
37,1,29.83,8002,2,0,0,6406.4107,0
55,0,29.7,8001,2,0,3,11881.358,1
29,0,27.94,3002,1,1,2,19107.7796,1
30,1,28.69,3000,3,1,1,20745.9891,0
37,0,27.74,8007,3,0,1,7281.5056,0
51,0,18.05,5003,0,0,1,9644.2525,0
18,1,33.77,3008,1,0,2,1725.5523,1
28,0,25.935,8008,1,0,1,4133.64165,0
48,1,28.0,4001,1,1,3,23568.272,1
18,0,35.625,4004,0,0,0,2211.13075,1
18,0,36.85,4000,0,1,2,36149.4835,1
53,0,35.9,4001,2,0,3,11163.568000000001,1
29,1,27.94,8009,0,0,2,2867.1196,1
49,0,27.17,8005,0,0,2,8601.3293,1
53,0,24.795,8000,1,0,1,10942.13205,0
25,1,33.66,4007,4,0,2,4504.6624,0
44,1,39.52,3001,0,0,1,6948.7008,1
40,0,28.69,8002,3,0,1,8059.6791,0
55,0,32.775,4000,2,0,1,12268.63225,0
60,1,39.9,4003,0,1,3,48173.361,1
31,1,36.3,4003,2,1,3,38711.0,1
40,0,36.19,4002,0,0,2,5920.1041,1
18,0,26.315,8004,0,0,0,2198.18985,1
18,1,34.43,4005,0,0,2,1137.4697,1
22,1,37.62,4000,1,1,2,37165.1638,1
22,1,35.6,4008,0,1,3,35585.576,1
21,1,35.53,3007,0,0,2,1532.4697,1
24,0,33.345,3007,0,0,1,2855.43755,1
58,1,49.06,4007,0,0,2,11381.3254,1
41,1,21.78,8005,1,0,2,6272.4772,0
62,0,32.965,3004,3,0,1,15612.19335,0
53,0,28.1,8009,3,0,3,11741.726,1
55,0,26.98,5004,0,0,1,11082.5772,1
26,1,30.875,4005,2,0,1,3877.30425,0
32,1,28.88,8010,0,0,1,3866.8552,1
55,1,37.3,3005,0,0,3,20630.28351,1
47,1,28.215,8009,4,0,0,10407.08585,1
